@startuml

start
:frame_1 = video.firstFrame();
:frame_2 = video.nextFrame();
:initial_features = detect(frame_1, max_features);
note right
Any detector algorithm
may be used here.
end note
repeat
:timer.start();
:final_features = klt.track(initial_features, frame_1, frame_2);
:timer.stop();
:record initial_features.size(), 
timer.value();
:frame_1 = frame_2;
:frame_2 = video.nextFrame();
:initial_features = final_features;
repeat while (initial_features.size() != 0 AND frame_2 != null?)
stop

@enduml